Univariate Continous Variable • statdata
…
Load Sample Dataset

kicks_num dataset contains number of success in the traditional Korean game, Jegichagi.

data("kicks_num")
kicks_num <- kicks_num %>% 
  set_names('count')

kicks_num
#> # A tibble: 30 × 1
#>    count
#>    <dbl>
#>  1    32
#>  2    46
#>  3    54
#>  4    27
#>  5    16
#>  6    52
#>  7    18
#>  8    45
#>  9    47
#> 10    36
#> # … with 20 more rows
…
